a.  int counts[10] = {};

b.  for (int i = 0; i < 15; ++i) {
         ++bonus[i];
     }

c.  for (int i = 0; i < 12; ++i) {
         std::cin >> monthlyTemperatures[i];
     }

d.  for (int i = 0; i < 5; ++i) {
         std::cout << "\t" << bestScores[i] << std::endl;
     }